{
	"questions": [
		{
			"question": "What would you like to do?",
			"nr": "1",

			"options":[
				{
					"option":"Press 1 to start a new game",
					"action": "newGame",
					"link": "2"
				},
				{
					"option":"Press 2 to load a game",
					"action": "loadGame"	
				},
				
			]
			
			
		},
		{
			"question":"New game started. Now what?",
			"nr": "2",

			"options":[
				{
					"option":"Press 1 to explore",
					"action": "explore",
					
					"randomLink":[
						{
							"nr":"3"
						},
						{
							"nr":"4"
						}

					]
				},
				{
					"option":"Press 2 to view stats",
					"action": "viewStats"

				},
				{
					"option":"Press 3 to return to main menu",
					"action": "none",
					"link": "1"

				}
				
			],
			
			"defaultLink":"1", 
			
			
		}

		
	]
}